20210130-millRiver_index_jsg2145
…
df2 = vector(mode = "list", length = ncol(M))
for(j in 1:ncol(M)) {
  df2[[j]] = matrify2(pdata = output[[j]])
}

head(df2)

## [[1]]
## # A tibble: 30 x 5
##        i     j `rname[[i]]` `cname[[j]]`      `M[[i, j]]`
##    <int> <int> <chr>        <chr>                   <dbl>
##  1     1     1 poverty      poverty                1     
##  2     1     2 poverty      employment             0.440 
##  3     1     3 poverty      income                 0.513 
##  4     1     4 poverty      car                    0.0462
##  5     1     5 poverty      no_internet           -0.149 
##  6     1     6 poverty      insured                0.770 
##  7     1     7 poverty      hs_drop_out_rates      0.802 
##  8     1     8 poverty      diversity             -0.320 
##  9     1     9 poverty      food_assistance        0.816 
## 10     1    10 poverty      teen_pregnancy         0.682 
## # ... with 20 more rows
## 
## [[2]]
## # A tibble: 30 x 5
##        i     j `rname[[i]]` `cname[[j]]`      `M[[i, j]]`
##    <int> <int> <chr>        <chr>                   <dbl>
##  1     2     1 employment   poverty                0.440 
##  2     2     2 employment   employment             1     
##  3     2     3 employment   income                 0.342 
##  4     2     4 employment   car                    0.0116
##  5     2     5 employment   no_internet           -0.0796
##  6     2     6 employment   insured                0.331 
##  7     2     7 employment   hs_drop_out_rates      0.502 
##  8     2     8 employment   diversity             -0.182 
##  9     2     9 employment   food_assistance        0.458 
## 10     2    10 employment   teen_pregnancy         0.261 
## # ... with 20 more rows
## 
## [[3]]
## # A tibble: 30 x 5
##        i     j `rname[[i]]` `cname[[j]]`      `M[[i, j]]`
##    <int> <int> <chr>        <chr>                   <dbl>
##  1     3     1 income       poverty                 0.513
##  2     3     2 income       employment              0.342
##  3     3     3 income       income                  1    
##  4     3     4 income       car                    -0.249
##  5     3     5 income       no_internet            -0.361
##  6     3     6 income       insured                 0.552
##  7     3     7 income       hs_drop_out_rates       0.519
##  8     3     8 income       diversity              -0.476
##  9     3     9 income       food_assistance         0.523
## 10     3    10 income       teen_pregnancy          0.460
## # ... with 20 more rows
## 
## [[4]]
## # A tibble: 30 x 5
##        i     j `rname[[i]]` `cname[[j]]`      `M[[i, j]]`
##    <int> <int> <chr>        <chr>                   <dbl>
##  1     4     1 car          poverty                0.0462
##  2     4     2 car          employment             0.0116
##  3     4     3 car          income                -0.249 
##  4     4     4 car          car                    1     
##  5     4     5 car          no_internet            0.424 
##  6     4     6 car          insured               -0.0782
##  7     4     7 car          hs_drop_out_rates     -0.140 
##  8     4     8 car          diversity              0.171 
##  9     4     9 car          food_assistance        0.0642
## 10     4    10 car          teen_pregnancy         0.0696
## # ... with 20 more rows
## 
## [[5]]
## # A tibble: 30 x 5
##        i     j `rname[[i]]` `cname[[j]]`      `M[[i, j]]`
##    <int> <int> <chr>        <chr>                   <dbl>
##  1     5     1 no_internet  poverty               -0.149 
##  2     5     2 no_internet  employment            -0.0796
##  3     5     3 no_internet  income                -0.361 
##  4     5     4 no_internet  car                    0.424 
##  5     5     5 no_internet  no_internet            1     
##  6     5     6 no_internet  insured                0.0407
##  7     5     7 no_internet  hs_drop_out_rates     -0.157 
##  8     5     8 no_internet  diversity              0.0153
##  9     5     9 no_internet  food_assistance       -0.162 
## 10     5    10 no_internet  teen_pregnancy        -0.0942
## # ... with 20 more rows
## 
## [[6]]
## # A tibble: 30 x 5
##        i     j `rname[[i]]` `cname[[j]]`      `M[[i, j]]`
##    <int> <int> <chr>        <chr>                   <dbl>
##  1     6     1 insured      poverty                0.770 
##  2     6     2 insured      employment             0.331 
##  3     6     3 insured      income                 0.552 
##  4     6     4 insured      car                   -0.0782
##  5     6     5 insured      no_internet            0.0407
##  6     6     6 insured      insured                1     
##  7     6     7 insured      hs_drop_out_rates      0.787 
##  8     6     8 insured      diversity             -0.558 
##  9     6     9 insured      food_assistance        0.666 
## 10     6    10 insured      teen_pregnancy         0.643 
## # ... with 20 more rows
…
output2 = NULL
for(i in 1:length(km$cluster)) {
  output2[[i]] = tibble(km$cluster[[i]])
}

output2_df = bind_rows(output2) %>% 
  rename("cluster" = "km$cluster[[i]]")

data %>% 
  add_column(cluster = pull(output2_df, cluster)) %>% 
  select(cluster, community) %>% 
  arrange(cluster)

## # A tibble: 43 x 2
##    cluster community             
##      <int> <chr>                 
##  1       1 Lakeview CDP          
##  2       1 West Hempstead CDP    
##  3       1 South Hempstead CDP   
##  4       1 Westbury village      
##  5       1 Carle Place CDP       
##  6       1 Uniondale CDP         
##  7       1 Barnum Island CDP     
##  8       1 Island Park village   
##  9       1 Hempstead village     
## 10       2 East Williston village
## # ... with 33 more rows
…
